{
    "name": "AdminLte",
    "alias": "adminlte",
    "description": "",
    "keywords": [],
    "active": 1,
    "order": 0,
    "providers": [
        "Modules\\AdminLte\\Providers\\AdminLteServiceProvider"
    ],
    "aliases": {},
    "files": [
        "start.php"
    ],
    "requires": []
}
